EESchema Schematic File Version 4
LIBS:pa_devboard-cache
EELAYER 26 0
EELAYER END
$Descr A4 11693 8268
encoding utf-8
Sheet 1 1
Title "PA MMZ25332B - DEV Board"
Date "2018-04-24"
Rev "A"
Comp "Libre Space Foundation"
Comment1 "Licensed under the CERN OHLv1.2"
Comment2 ""
Comment3 ""
Comment4 ""
$EndDescr
$Comp
L Device:L L1
U 1 1 5ADF7F3D
P 4225 4275
F 0 "L1" V 4415 4275 50  0000 C CNN
F 1 "3.9 nH " V 4324 4275 50  0000 C CNN
F 2 "Inductor_SMD:L_0603_1608Metric_Pad0.99x1.00mm_HandSolder" H 4225 4275 50  0001 C CNN
F 3 "~" H 4225 4275 50  0001 C CNN
F 4 "LQG18HN3N9S00D" V 4225 4275 50  0001 C CNN "Mnf."
	1    4225 4275
	0    -1   -1   0   
$EndComp
$Comp
L Device:C C2
U 1 1 5ADF8279
P 6500 4150
F 0 "C2" V 6650 4150 50  0000 C CNN
F 1 "220 pF " V 6350 4150 50  0000 C CNN
F 2 "Capacitor_SMD:C_0603_1608Metric_Pad0.99x1.00mm_HandSolder" H 6538 4000 50  0001 C CNN
F 3 "~" H 6500 4150 50  0001 C CNN
F 4 "GCM1885C2A221JA16" V 6500 4150 50  0001 C CNN "Mnf."
	1    6500 4150
	0    -1   -1   0   
$EndComp
$Comp
L Device:L L5
U 1 1 5ADF83C9
P 7125 4150
F 0 "L5" V 7315 4150 50  0000 C CNN
F 1 "5.6 nH " V 7224 4150 50  0000 C CNN
F 2 "Inductor_SMD:L_0603_1608Metric_Pad0.99x1.00mm_HandSolder" H 7125 4150 50  0001 C CNN
F 3 "~" H 7125 4150 50  0001 C CNN
F 4 "LQG18HN5N6S00" V 7125 4150 50  0001 C CNN "Mnf."
	1    7125 4150
	0    -1   -1   0   
$EndComp
$Comp
L Device:L L4
U 1 1 5ADF847D
P 6825 4375
F 0 "L4" H 6878 4421 50  0000 L CNN
F 1 "22 nH " H 6878 4330 50  0000 L CNN
F 2 "Inductor_SMD:L_0603_1608Metric_Pad0.99x1.00mm_HandSolder" H 6825 4375 50  0001 C CNN
F 3 "~" H 6825 4375 50  0001 C CNN
F 4 "LQW18AN22NG00" H 6825 4375 50  0001 C CNN "Mnf."
	1    6825 4375
	1    0    0    -1  
$EndComp
$Comp
L Device:C C3
U 1 1 5ADF8788
P 7500 4375
F 0 "C3" H 7615 4421 50  0000 L CNN
F 1 "18 pF " H 7615 4330 50  0000 L CNN
F 2 "Capacitor_SMD:C_0603_1608Metric_Pad0.99x1.00mm_HandSolder" H 7538 4225 50  0001 C CNN
F 3 "~" H 7500 4375 50  0001 C CNN
F 4 "GCM1885C1H180JA16" H 7500 4375 50  0001 C CNN "Mnf."
	1    7500 4375
	1    0    0    -1  
$EndComp
$Comp
L Device:C C4
U 1 1 5ADF8823
P 7825 4375
F 0 "C4" H 7940 4421 50  0000 L CNN
F 1 "C" H 7940 4330 50  0000 L CNN
F 2 "Capacitor_SMD:C_0603_1608Metric_Pad0.99x1.00mm_HandSolder" H 7863 4225 50  0001 C CNN
F 3 "~" H 7825 4375 50  0001 C CNN
	1    7825 4375
	1    0    0    -1  
$EndComp
$Comp
L pa_devboard-rescue:Conn_Coaxial-Connector_Specialized J4
U 1 1 5ADF8A02
P 8225 4150
F 0 "J4" H 8324 4126 50  0000 L CNN
F 1 "Conn_Coaxial" H 8324 4035 50  0000 L CNN
F 2 "lsf-kicad-lib:Conn_SMA_Molex_73251-1150" H 8225 4150 50  0001 C CNN
F 3 "" H 8225 4150 50  0001 C CNN
F 4 "73251-1150 " H 8225 4150 50  0001 C CNN "Mnf."
	1    8225 4150
	1    0    0    -1  
$EndComp
$Comp
L lsd-kicad:MMZ09332B U1
U 1 1 5ADF8CFC
P 5500 4075
F 0 "U1" H 5750 4575 60  0000 C CNN
F 1 "MMZ09332B" H 5750 4675 60  0000 C CNN
F 2 "lsf-kicad-lib:MMZ09332B" H 5800 4475 60  0001 C CNN
F 3 "https://www.mouser.com/ds/2/302/a-1126961.pdf" H 5900 4575 60  0001 C CNN
F 4 "MMZ09332BT1" H 5500 4075 50  0001 C CNN "Mnf."
	1    5500 4075
	1    0    0    -1  
$EndComp
$Comp
L power:GND #PWR0101
U 1 1 5ADF9994
P 3500 4725
F 0 "#PWR0101" H 3500 4475 50  0001 C CNN
F 1 "GND" H 3505 4552 50  0000 C CNN
F 2 "" H 3500 4725 50  0001 C CNN
F 3 "" H 3500 4725 50  0001 C CNN
	1    3500 4725
	1    0    0    -1  
$EndComp
$Comp
L power:GND #PWR0102
U 1 1 5ADF99B8
P 5800 5200
F 0 "#PWR0102" H 5800 4950 50  0001 C CNN
F 1 "GND" H 5805 5027 50  0000 C CNN
F 2 "" H 5800 5200 50  0001 C CNN
F 3 "" H 5800 5200 50  0001 C CNN
	1    5800 5200
	1    0    0    -1  
$EndComp
$Comp
L power:GND #PWR0103
U 1 1 5ADF99D5
P 6825 4725
F 0 "#PWR0103" H 6825 4475 50  0001 C CNN
F 1 "GND" H 6830 4552 50  0000 C CNN
F 2 "" H 6825 4725 50  0001 C CNN
F 3 "" H 6825 4725 50  0001 C CNN
	1    6825 4725
	1    0    0    -1  
$EndComp
$Comp
L power:GND #PWR0104
U 1 1 5ADF99F2
P 7675 4725
F 0 "#PWR0104" H 7675 4475 50  0001 C CNN
F 1 "GND" H 7680 4552 50  0000 C CNN
F 2 "" H 7675 4725 50  0001 C CNN
F 3 "" H 7675 4725 50  0001 C CNN
	1    7675 4725
	1    0    0    -1  
$EndComp
$Comp
L power:GND #PWR0105
U 1 1 5ADF9A0F
P 8225 4725
F 0 "#PWR0105" H 8225 4475 50  0001 C CNN
F 1 "GND" H 8230 4552 50  0000 C CNN
F 2 "" H 8225 4725 50  0001 C CNN
F 3 "" H 8225 4725 50  0001 C CNN
	1    8225 4725
	1    0    0    -1  
$EndComp
Wire Wire Line
	3650 4275 4075 4275
Wire Wire Line
	4375 4275 4900 4275
Wire Wire Line
	5800 4625 5800 5200
Wire Wire Line
	6100 4225 6175 4225
Wire Wire Line
	6175 4225 6175 4150
Wire Wire Line
	6175 4075 6100 4075
Wire Wire Line
	6175 4150 6350 4150
Connection ~ 6175 4150
Wire Wire Line
	6175 4150 6175 4075
Wire Wire Line
	6650 4150 6825 4150
Wire Wire Line
	7275 4150 7500 4150
Wire Wire Line
	8225 4350 8225 4725
Wire Wire Line
	7825 4225 7825 4150
Connection ~ 7825 4150
Wire Wire Line
	7825 4150 8075 4150
Wire Wire Line
	7500 4225 7500 4150
Connection ~ 7500 4150
Wire Wire Line
	7500 4150 7825 4150
Wire Wire Line
	7500 4525 7500 4650
Wire Wire Line
	7500 4650 7675 4650
Wire Wire Line
	7825 4650 7825 4525
Wire Wire Line
	7675 4725 7675 4650
Connection ~ 7675 4650
Wire Wire Line
	7675 4650 7825 4650
Wire Wire Line
	6825 4525 6825 4725
Wire Wire Line
	6825 4225 6825 4150
Connection ~ 6825 4150
Wire Wire Line
	6825 4150 6975 4150
$Comp
L Device:C C13
U 1 1 5ADFABD8
P 5650 4975
F 0 "C13" H 5775 5050 50  0000 C CNN
F 1 "100 pF " H 5775 4900 50  0000 C CNN
F 2 "Capacitor_SMD:C_0603_1608Metric_Pad0.99x1.00mm_HandSolder" H 5688 4825 50  0001 C CNN
F 3 "~" H 5650 4975 50  0001 C CNN
F 4 "06036C101JAT2A" H 5650 4975 50  0001 C CNN "Mnf."
	1    5650 4975
	-1   0    0    -1  
$EndComp
Wire Wire Line
	5650 4825 5650 4750
$Comp
L power:GND #PWR0106
U 1 1 5ADFCCCC
P 5650 5200
F 0 "#PWR0106" H 5650 4950 50  0001 C CNN
F 1 "GND" H 5655 5027 50  0000 C CNN
F 2 "" H 5650 5200 50  0001 C CNN
F 3 "" H 5650 5200 50  0001 C CNN
	1    5650 5200
	1    0    0    -1  
$EndComp
$Comp
L Device:R R1
U 1 1 5ADFD2F5
P 4625 3725
F 0 "R1" V 4725 3725 50  0000 C CNN
F 1 "R" V 4625 3725 50  0000 C CNN
F 2 "Resistor_SMD:R_0603_1608Metric_Pad0.99x1.00mm_HandSolder" V 4555 3725 50  0001 C CNN
F 3 "~" H 4625 3725 50  0001 C CNN
	1    4625 3725
	0    1    1    0   
$EndComp
$Comp
L Device:R R2
U 1 1 5ADFD3D7
P 4625 3600
F 0 "R2" V 4525 3600 50  0000 C CNN
F 1 "R" V 4625 3600 50  0000 C CNN
F 2 "Resistor_SMD:R_0603_1608Metric_Pad0.99x1.00mm_HandSolder" V 4555 3600 50  0001 C CNN
F 3 "~" H 4625 3600 50  0001 C CNN
	1    4625 3600
	0    1    1    0   
$EndComp
$Comp
L Device:C C16
U 1 1 5ADFF0F5
P 4200 3650
F 0 "C16" H 4125 3550 50  0000 R CNN
F 1 "1 uF " H 4086 3695 50  0000 R CNN
F 2 "Capacitor_SMD:C_0603_1608Metric_Pad0.99x1.00mm_HandSolder" H 4238 3500 50  0001 C CNN
F 3 "~" H 4200 3650 50  0001 C CNN
F 4 "06036C105KAT2A" H 4200 3650 50  0001 C CNN "Mnf."
	1    4200 3650
	1    0    0    1   
$EndComp
$Comp
L Device:C C6
U 1 1 5AE00842
P 3900 3650
F 0 "C6" H 3785 3604 50  0000 R CNN
F 1 "100 pF " H 3785 3695 50  0000 R CNN
F 2 "Capacitor_SMD:C_0603_1608Metric_Pad0.99x1.00mm_HandSolder" H 3938 3500 50  0001 C CNN
F 3 "~" H 3900 3650 50  0001 C CNN
F 4 "06036C101JAT2A" H 3900 3650 50  0001 C CNN "Mnf."
	1    3900 3650
	1    0    0    1   
$EndComp
Wire Wire Line
	4900 3825 4850 3825
Wire Wire Line
	4850 3825 4850 3600
Wire Wire Line
	4850 3600 4775 3600
Wire Wire Line
	4775 3725 4800 3725
Wire Wire Line
	4800 3725 4800 3975
Wire Wire Line
	4900 3975 4800 3975
Wire Wire Line
	4375 3325 4375 3425
Wire Wire Line
	3900 3500 3900 3425
Wire Wire Line
	3900 3425 4200 3425
Connection ~ 4375 3425
Wire Wire Line
	4375 3425 4375 3600
Wire Wire Line
	4200 3500 4200 3425
Connection ~ 4200 3425
Wire Wire Line
	4200 3425 4375 3425
Wire Wire Line
	4475 3600 4375 3600
Connection ~ 4375 3600
Wire Wire Line
	4375 3600 4375 3725
Wire Wire Line
	4475 3725 4375 3725
Wire Wire Line
	3900 3800 3900 3850
Wire Wire Line
	3900 3850 4050 3850
Wire Wire Line
	4200 3850 4200 3800
$Comp
L power:GND #PWR0107
U 1 1 5AE0964A
P 4050 3875
F 0 "#PWR0107" H 4050 3625 50  0001 C CNN
F 1 "GND" H 4055 3702 50  0000 C CNN
F 2 "" H 4050 3875 50  0001 C CNN
F 3 "" H 4050 3875 50  0001 C CNN
	1    4050 3875
	1    0    0    -1  
$EndComp
Wire Wire Line
	4050 3875 4050 3850
Connection ~ 4050 3850
Wire Wire Line
	4050 3850 4200 3850
Wire Wire Line
	4375 3725 4375 3900
Wire Wire Line
	4375 3900 4750 3900
Wire Wire Line
	4750 3900 4750 4125
Wire Wire Line
	4750 4125 4900 4125
Connection ~ 4375 3725
Text GLabel 4375 3325 1    50   Input ~ 0
VBIAS
Text Notes 3025 3350 0    50   ~ 0
C6 place near to Vbias Pin2
$Comp
L Device:C C18
U 1 1 5AE12E67
P 4775 3075
F 0 "C18" H 4825 3175 50  0000 L CNN
F 1 "1 uF " H 4825 3000 50  0000 L CNN
F 2 "Capacitor_SMD:C_0603_1608Metric_Pad0.99x1.00mm_HandSolder" H 4813 2925 50  0001 C CNN
F 3 "~" H 4775 3075 50  0001 C CNN
F 4 "06036C105KAT2A" H 4775 3075 50  0001 C CNN "Mnf."
	1    4775 3075
	1    0    0    -1  
$EndComp
$Comp
L Device:L L2
U 1 1 5AE12EFD
P 5000 2825
F 0 "L2" V 5190 2825 50  0000 C CNN
F 1 "5.6 nH" V 5099 2825 50  0000 C CNN
F 2 "Inductor_SMD:L_0603_1608Metric_Pad0.99x1.00mm_HandSolder" H 5000 2825 50  0001 C CNN
F 3 "~" H 5000 2825 50  0001 C CNN
F 4 " LQG18HN5N6S00D" V 5000 2825 50  0001 C CNN "Mnf."
	1    5000 2825
	0    -1   -1   0   
$EndComp
$Comp
L Device:C C12
U 1 1 5AE12FF5
P 5225 3075
F 0 "C12" H 5075 3175 50  0000 L CNN
F 1 "2.4 pF " H 5075 3000 50  0000 L CNN
F 2 "Capacitor_SMD:C_0603_1608Metric_Pad0.99x1.00mm_HandSolder" H 5263 2925 50  0001 C CNN
F 3 "~" H 5225 3075 50  0001 C CNN
F 4 "GCM1885C1H2R4CA16D" H 5225 3075 50  0001 C CNN "Mnf."
	1    5225 3075
	1    0    0    -1  
$EndComp
Wire Wire Line
	5400 3525 5400 2825
Wire Wire Line
	5400 2825 5225 2825
Wire Wire Line
	5225 2925 5225 2825
Connection ~ 5225 2825
Wire Wire Line
	5225 2825 5150 2825
Wire Wire Line
	4775 2925 4775 2825
Wire Wire Line
	4775 2825 4850 2825
Wire Wire Line
	4775 3225 4775 3275
Wire Wire Line
	4775 3275 5000 3275
Wire Wire Line
	5225 3275 5225 3225
Wire Wire Line
	5000 3275 5000 3325
Connection ~ 5000 3275
Wire Wire Line
	5000 3275 5225 3275
$Comp
L power:GND #PWR0108
U 1 1 5AE196CF
P 5000 3325
F 0 "#PWR0108" H 5000 3075 50  0001 C CNN
F 1 "GND" H 5005 3152 50  0000 C CNN
F 2 "" H 5000 3325 50  0001 C CNN
F 3 "" H 5000 3325 50  0001 C CNN
	1    5000 3325
	1    0    0    -1  
$EndComp
Text GLabel 4775 2725 1    50   Input ~ 0
VCC1
Wire Wire Line
	4775 2825 4775 2725
Connection ~ 4775 2825
Wire Wire Line
	5650 5200 5650 5125
Wire Wire Line
	5650 4750 5450 4750
Connection ~ 5650 4750
Wire Wire Line
	5650 4750 5650 4625
Text GLabel 5450 4750 0    50   Input ~ 0
PDET
Wire Wire Line
	6100 3725 6200 3725
Wire Wire Line
	6200 3725 6200 3550
Connection ~ 6200 3725
Wire Wire Line
	6200 3725 6375 3725
$Comp
L Device:C C7
U 1 1 5AE24F8C
P 6200 3400
F 0 "C7" H 6315 3446 50  0000 L CNN
F 1 "100 pF" H 6315 3355 50  0000 L CNN
F 2 "Capacitor_SMD:C_0603_1608Metric_Pad0.99x1.00mm_HandSolder" H 6238 3250 50  0001 C CNN
F 3 "~" H 6200 3400 50  0001 C CNN
F 4 "06036C101JAT2A" H 6200 3400 50  0001 C CNN "Mnf."
	1    6200 3400
	1    0    0    -1  
$EndComp
Wire Wire Line
	6200 3250 6200 3100
Wire Wire Line
	6200 3100 6600 3100
Wire Wire Line
	6600 3100 6600 3350
$Comp
L power:GND #PWR0109
U 1 1 5AE265C5
P 6600 3350
F 0 "#PWR0109" H 6600 3100 50  0001 C CNN
F 1 "GND" H 6605 3177 50  0000 C CNN
F 2 "" H 6600 3350 50  0001 C CNN
F 3 "" H 6600 3350 50  0001 C CNN
	1    6600 3350
	1    0    0    -1  
$EndComp
Text GLabel 6375 3725 2    50   Input ~ 0
PDC
Wire Wire Line
	6100 3925 6875 3925
Wire Wire Line
	6875 3925 6875 3350
Wire Wire Line
	6875 3350 7000 3350
$Comp
L Device:L L3
U 1 1 5AE28108
P 7150 3350
F 0 "L3" V 7340 3350 50  0000 C CNN
F 1 "12 nH" V 7249 3350 50  0000 C CNN
F 2 "Inductor_SMD:L_0603_1608Metric_Pad0.99x1.00mm_HandSolder" H 7150 3350 50  0001 C CNN
F 3 "~" H 7150 3350 50  0001 C CNN
F 4 "HK160812NJ-T " V 7150 3350 50  0001 C CNN "Mnf."
	1    7150 3350
	0    -1   -1   0   
$EndComp
$Comp
L Device:C C20
U 1 1 5AE2818A
P 7375 3550
F 0 "C20" H 7450 3650 50  0000 L CNN
F 1 "4.7 uF" H 7450 3475 50  0000 L CNN
F 2 "Capacitor_SMD:C_0603_1608Metric_Pad0.99x1.00mm_HandSolder" H 7413 3400 50  0001 C CNN
F 3 "~" H 7375 3550 50  0001 C CNN
F 4 "GRM188R61C475KAAJD" H 7375 3550 50  0001 C CNN "Mnf."
	1    7375 3550
	1    0    0    -1  
$EndComp
$Comp
L Device:C C21
U 1 1 5AE28208
P 7675 3550
F 0 "C21" H 7750 3650 50  0000 L CNN
F 1 "1000 pF " H 7750 3475 50  0000 L CNN
F 2 "Capacitor_SMD:C_0603_1608Metric_Pad0.99x1.00mm_HandSolder" H 7713 3400 50  0001 C CNN
F 3 "~" H 7675 3550 50  0001 C CNN
F 4 "GCD188R71H102KA01D" H 7675 3550 50  0001 C CNN "Mnf."
	1    7675 3550
	1    0    0    -1  
$EndComp
Wire Wire Line
	7300 3350 7375 3350
Wire Wire Line
	7375 3400 7375 3350
Connection ~ 7375 3350
Wire Wire Line
	7375 3350 7675 3350
Wire Wire Line
	7675 3400 7675 3350
Connection ~ 7675 3350
Wire Wire Line
	7675 3350 7900 3350
Wire Wire Line
	7375 3700 7375 3850
Wire Wire Line
	7375 3850 7525 3850
Wire Wire Line
	7675 3850 7675 3700
$Comp
L power:GND #PWR0110
U 1 1 5AE304D6
P 7525 3875
F 0 "#PWR0110" H 7525 3625 50  0001 C CNN
F 1 "GND" H 7530 3702 50  0000 C CNN
F 2 "" H 7525 3875 50  0001 C CNN
F 3 "" H 7525 3875 50  0001 C CNN
	1    7525 3875
	1    0    0    -1  
$EndComp
Wire Wire Line
	7525 3875 7525 3850
Connection ~ 7525 3850
Wire Wire Line
	7525 3850 7675 3850
Text GLabel 7900 3350 2    50   Input ~ 0
VCC2
$Comp
L Connector_Generic:Conn_01x06 J2
U 1 1 5AE32B43
P 5925 2125
F 0 "J2" V 5891 1737 50  0000 R CNN
F 1 "Conn_01x06" V 5800 1737 50  0000 R CNN
F 2 "Connector_PinHeader_2.54mm:PinHeader_1x06_P2.54mm_Vertical" H 5925 2125 50  0001 C CNN
F 3 "~" H 5925 2125 50  0001 C CNN
	1    5925 2125
	0    -1   -1   0   
$EndComp
Wire Wire Line
	5825 2325 5825 2475
Wire Wire Line
	5925 2325 5925 2475
Wire Wire Line
	6025 2325 6025 2475
Wire Wire Line
	6125 2325 6125 2475
Text GLabel 5825 2475 3    50   Input ~ 0
VBIAS
Text GLabel 5925 2475 3    50   Input ~ 0
VCC1
Text GLabel 6125 2475 3    50   Input ~ 0
VCC2
Text GLabel 6025 2475 3    50   Input ~ 0
PDC
$Comp
L power:GND #PWR0111
U 1 1 5AE3F395
P 6225 2600
F 0 "#PWR0111" H 6225 2350 50  0001 C CNN
F 1 "GND" H 6230 2427 50  0000 C CNN
F 2 "" H 6225 2600 50  0001 C CNN
F 3 "" H 6225 2600 50  0001 C CNN
	1    6225 2600
	1    0    0    -1  
$EndComp
$Comp
L power:GND #PWR0112
U 1 1 5AE3F424
P 5725 2600
F 0 "#PWR0112" H 5725 2350 50  0001 C CNN
F 1 "GND" H 5730 2427 50  0000 C CNN
F 2 "" H 5725 2600 50  0001 C CNN
F 3 "" H 5725 2600 50  0001 C CNN
	1    5725 2600
	1    0    0    -1  
$EndComp
Wire Wire Line
	6225 2325 6225 2600
Wire Wire Line
	5725 2325 5725 2600
Wire Wire Line
	8625 2375 8625 2525
Text GLabel 8625 2525 3    50   Input ~ 0
PDET
$Comp
L Jumper:SolderJumper_2_Open JP1
U 1 1 5AE4EF9E
P 7375 2250
F 0 "JP1" H 7375 2455 50  0000 C CNN
F 1 "SolderJumper_2_Open" H 7375 2364 50  0000 C CNN
F 2 "Jumper:SolderJumper-2_P1.3mm_Open_TrianglePad1.0x1.5mm" H 7375 2250 50  0001 C CNN
F 3 "~" H 7375 2250 50  0001 C CNN
	1    7375 2250
	1    0    0    -1  
$EndComp
Text GLabel 7225 2250 0    50   Input ~ 0
VBIAS
Text GLabel 7525 2250 2    50   Input ~ 0
VCC1
Text GLabel 7225 2600 0    50   Input ~ 0
VCC2
$Comp
L Jumper:SolderJumper_2_Open JP2
U 1 1 5AE50470
P 7375 2600
F 0 "JP2" H 7375 2805 50  0000 C CNN
F 1 "SolderJumper_2_Open" H 7375 2714 50  0000 C CNN
F 2 "Jumper:SolderJumper-2_P1.3mm_Open_TrianglePad1.0x1.5mm" H 7375 2600 50  0001 C CNN
F 3 "~" H 7375 2600 50  0001 C CNN
	1    7375 2600
	1    0    0    -1  
$EndComp
Text GLabel 7525 2600 2    50   Input ~ 0
VCC1
$Bitmap
Pos 8350 6725
Scale 1.000000
Data
89 50 4E 47 0D 0A 1A 0A 00 00 00 0D 49 48 44 52 00 00 03 1C 00 00 00 57 08 06 00 00 00 8E 70 43 
3A 00 00 00 04 73 42 49 54 08 08 08 08 7C 08 64 88 00 00 00 09 70 48 59 73 00 00 0E 74 00 00 0E 
74 01 6B 24 B3 D6 00 00 20 00 49 44 41 54 78 9C ED 9D 79 98 1D 45 BD F7 3F 33 D9 17 96 90 A0 81 
20 04 09 08 28 1A 64 11 02 A2 2C 7A 41 40 45 14 44 5C 2E 8A 0B F7 BE 5E F5 45 41 11 01 97 F7 8A 
C8 15 BD CA 55 44 41 11 05 51 44 45 11 10 14 64 55 10 95 4D 02 04 59 22 09 10 42 56 B2 4C 32 E7 
FD E3 7B CE 9D 93 33 55 5D BD 54 77 9F 99 F9 7D 9E A7 1E C8 39 DD 55 35 7D AA BB EB B7 F7 60 F8 
98 01 CC 06 5E 01 CC 04 B6 02 B6 06 A6 00 13 80 89 C0 38 60 09 B0 AA D9 9E 01 1E 03 E6 01 0F 03 
73 81 3F 03 AB AB 9D BA 61 18 86 61 18 86 61 74 07 3D 75 4F A0 8B 98 09 BC 0E 38 10 D8 1F 78 41 
A4 7E D7 02 77 02 B7 00 37 00 D7 03 6B 22 F5 6D 18 86 61 18 86 61 18 46 17 B3 15 F0 11 E0 66 A0 
51 51 5B 02 5C 04 1C 8E 2C 24 86 61 18 86 61 18 86 61 0C 33 F6 05 AE 04 FA A9 4E D0 70 B5 E7 80 
AF 21 57 2D C3 30 0C C3 30 0C C3 30 86 30 BD C0 BB 80 BF 53 AF 90 E1 6A 6B 81 4B 80 9D 4A FB EB 
0D C3 30 0C C3 30 0C C3 28 8D 23 80 7B A9 5F B0 08 B5 75 C0 85 C0 36 E5 5C 06 C3 30 0C C3 30 0C 
C3 30 62 32 0B F8 2D F5 0B 12 59 DB 6A E0 34 60 6C FC 4B 62 18 86 61 18 86 61 18 46 51 46 01 9F 
46 A9 6A EB 16 1E 8A B4 FB 51 BC 89 61 18 86 61 18 86 61 18 5D C2 0B 80 6B A9 5F 58 88 D5 FA 51 
60 F9 98 98 17 C9 30 0C C3 30 0C C3 30 8C EC 1C 00 2C A0 7E 21 A1 8C 76 23 2A 46 68 18 86 61 18 
86 61 18 46 0D 7C 06 58 4F FD 82 41 99 6D 01 F0 CA 58 17 CC 30 0C C3 30 0C C3 30 8C 30 3D C0 57 
A8 5F 18 A8 AA AD 00 0E 8D 72 E5 0C C3 30 0C C3 30 0C C3 48 64 0C F0 43 EA 17 02 AA 6E 7D C0 3B 
22 5C 3F C3 30 0C C3 30 0C C3 30 3C 8C 41 D5 C2 EB DE FC D7 29 74 BC B5 F0 55 34 0C C3 30 0C C3 
30 0C 63 10 3D C0 F7 A8 7F D3 5F 77 5B 0B 1C 5E EC 52 1A 43 80 4F 00 F3 12 DA F9 F5 4D CD 30 0C 
C3 30 78 98 C1 EF 26 F3 C4 30 86 3C 9F A7 FE CD 7E B7 B4 55 C0 9E C5 2E A7 D1 E5 7C 91 E4 35 70 
65 7D 53 33 0C C3 30 0C FA 19 FC 6E FA 50 AD 33 32 BA 8A D1 75 4F 20 07 C7 03 A7 D6 3D 89 2E 62 
3C 70 39 12 3A 16 D4 3C 17 C3 30 DC 8C 05 36 42 2F E5 76 56 23 A5 81 61 18 86 61 0C 5B 86 9A C0 
B1 2B 70 6E DD 93 E8 42 B6 02 7E 06 BC 06 B9 59 19 7E 7A 50 61 C8 24 3E 0D FC A9 A4 F1 B7 03 B6 
F5 7C B7 10 B8 B7 A4 71 8D EA 18 0D 1C 8C B2 C9 BD 12 D8 19 98 9C 70 FC F3 C0 B3 C0 22 E0 19 B4 
0E E6 31 E0 A2 30 17 58 52 E2 7C 0D 63 77 E4 9E FB 72 B4 56 1B 68 CD 2D 07 56 A2 EC 88 4B 9B FF 
5E D1 FC 6C 29 B0 AC ED FB 65 CD B6 BE E2 B9 1B 86 61 44 65 3C 70 0F F5 BB 30 75 73 FB 7F B9 AF 
EE C8 A1 87 F0 75 7C 43 49 63 EF 47 B8 56 CC 91 8E F3 CC A5 6A 68 D0 83 2C B0 0B 89 7B 5F F7 03 
F7 01 DF 05 E6 54 F6 D7 18 23 81 6D 81 DF 11 77 BD 3E 8F 04 E7 79 C8 FA 6E 8C 0C CC A5 0A 7A 81 
29 1D CD 68 D2 5B F7 04 32 70 0E F0 B2 BA 27 D1 E5 7C 12 59 39 8C EE 64 57 C2 F7 DC 6E 55 4C C4 
88 CE 04 E0 2A 14 C0 FF C2 C8 7D F7 20 2B C9 7B 91 E5 C4 30 62 B0 1D 70 2B B0 7F E4 7E 27 00 D3 
80 17 03 3B 45 EE DB 30 BA 95 59 C0 53 C0 E2 8E 36 97 64 0B F7 88 A1 9B 5C AA A6 23 CD A0 8B 43 
19 79 92 72 1E 7A 81 0B 80 5D 90 96 A9 93 C9 C0 66 C0 E3 55 4E CA F8 5F 7A 22 1D 63 74 17 A3 91 
26 D7 84 01 63 A8 D0 03 FC 00 BD 77 0D 63 A4 73 2A 72 27 6C 71 3D 70 5E C6 3E F6 45 82 76 27 3B 
20 65 F9 ED F9 A6 36 7C A8 4B E0 18 83 7E DC 7D 81 7D 90 56 FE 1C E0 4C C7 B1 63 9B DF 19 E9 78 
31 70 32 70 BA E3 BB D5 C8 7C 3E 19 B8 13 B8 03 69 B8 6E 45 7E B8 86 61 64 E7 FD C0 21 75 4F C2 
30 32 70 08 B0 77 DD 93 30 8C 2E E1 58 60 C7 B6 7F E7 89 99 4B DA 4F 77 93 72 BF 36 AA BA 08 93 
80 83 80 D7 A2 87 DC 2B 91 D0 D1 62 11 F0 0D CF B9 1F 03 B6 2F 73 72 C3 90 93 50 9D 92 7F 74 7C 
BE 0E F8 4F E4 0B 7E 68 B3 B5 3E BF 13 F8 03 F0 DB E6 7F 2D F8 DC 30 C2 4C 00 4E AB 7B 12 86 91 
91 37 79 3E 5F 8A 92 6A 2C 20 4E F6 B4 A7 23 F4 61 18 65 D2 03 CC AC 7B 12 23 81 32 05 8E ED 50 
F0 ED 61 C8 82 31 2E E1 D8 FF 42 59 2E 3A 79 21 70 4A FC A9 0D 7B C6 03 67 01 6F 73 7C F7 03 64 
3E 6C CF 94 34 1A D8 AB D9 4E 42 EE 58 BF 43 C1 C8 BF 06 FE 59 E6 64 0D 63 08 73 00 E6 96 62 0C 
3D F6 72 7C F6 34 8A 33 7B B2 E2 B9 18 46 9D CC 40 7B 26 A3 64 62 0B 1C 5B 00 47 A1 8D EE 3E 29 
CF 79 1E F8 B6 E7 BB 33 80 8D 8B 4F 6B 44 72 24 72 5B BB BB E3 F3 3E 24 E0 F9 2C 4A 00 13 91 A0 
78 18 CA 34 71 13 70 31 F0 13 2C 3D 67 11 D6 A4 38 A6 AF F4 59 18 31 79 7D CA E3 EE 45 56 C4 A5 
C8 B5 11 74 9F B5 14 31 9B 22 4D 5B AB 5E C7 26 CD B6 51 B3 4D 8C 34 5F C3 00 D8 DC F1 D9 15 98 
B0 61 8C 3C 7C 69 EA B3 F2 4C C2 77 8B 23 8D 31 A4 89 21 70 8C 01 DE 0A FC 2B 70 20 30 2A E3 F9 
3F C2 FD 63 6C DE EC D3 C8 47 0F AA 27 71 B4 E3 BB 8B 91 05 24 CD 26 A6 07 A5 73 DD 0F F8 6F 64 
F1 F8 2E 70 35 12 46 8C F4 5C 81 5C 19 7C 2E 82 4F 03 3F AE 6E 3A 46 04 76 0F 7C DF 00 DE 05 FC 
B0 E0 38 A3 30 E5 8B 11 8F 4D 1D 9F 99 25 DB 18 89 BC 38 52 3F 57 02 1F 74 F4 77 37 70 7F A4 31 
46 2C 53 50 70 F2 7C 8A E5 EC 9E ED E9 FF B4 82 FD 5A 53 CD 87 97 78 AE EF F7 0A F6 FD 10 F0 11 
86 9E E6 B5 CE 3A 1C 79 B1 3A 1C DD CB 5C 92 7F 1B AB 43 60 74 23 AB 18 BC 56 CD 7D D9 28 C2 50 
AD C3 71 06 83 E7 ED F3 BA 31 0A 90 A7 0E C7 14 E0 6C 94 5A F5 4C E4 FF 96 97 BB 81 BF 3A 3E 1F 
07 9C 50 A0 5F 43 F4 02 1F F0 7C 77 7E C1 BE 67 01 5F 05 1E 45 82 A7 F9 40 1A 23 11 57 1A C4 76 
7E 57 C9 2C 0C C3 30 8C 3C C4 B2 70 18 01 B2 B8 54 8D 01 8E 03 3E 0F BC 20 D2 F8 3F F2 7C FE 76 
2C 10 33 16 EF 46 9A AB CE F8 81 5B 80 87 91 E0 50 84 CD 91 E0 79 02 F0 29 E0 52 A4 21 30 BA 83 
17 01 5B A1 78 80 89 28 86 E0 31 94 C1 6C 7D 85 F3 98 8E 94 15 6B 50 9C 4A CB 32 9A 87 71 0C B6 
AC 2D 29 D0 5F 11 26 05 BE 1F 2A 59 7A C6 03 5B A3 78 91 E7 91 42 29 66 AA EC 31 E8 BD 31 1D C5 
FA 4D 60 A0 0A EF 58 64 79 5C 83 32 16 CE 03 1E 20 5D CC 53 5A C6 A2 1A 44 ED EB E6 39 AA 5B 37 
9B B0 A1 82 6F 0D EE 5A 49 C6 00 BD 0C C4 31 8D 46 CF AE 15 C4 5D 17 43 89 51 68 73 BC 23 BA 26 
3D C8 0D EE D1 66 8B C5 34 54 68 74 13 64 B5 58 8A E2 13 1E A1 BA 18 C3 49 E8 79 F1 42 B4 C7 18 
8F D2 F9 8F 69 FE 7F 1F 5A 0B F3 90 D2 BA C8 BD 34 54 04 8E 89 E8 BA 6C 84 B2 88 AE A0 DE 98 DA 
2D D1 3A 99 82 E6 F6 34 F0 04 72 1F EB 77 9D 90 56 E0 D8 03 B8 88 0D F3 14 C7 C0 E7 AF FE AF 91 
C7 19 C9 4C 03 DE 8C FB 5A FF 12 F8 BF 91 C6 D9 06 09 90 FF 0E BC 07 3D 08 8C 0D D9 86 B0 C6 FB 
75 E8 C1 9E 87 71 28 F5 F4 FE 28 E6 E6 65 E8 E1 E4 62 31 F0 0B 94 40 E0 BE 14 7D 7F 11 25 84 70 
71 2E F0 15 C7 E7 07 A3 B5 70 10 83 2D 01 4B 50 1D 9E A4 B1 B7 01 DE 88 AA AF EF 88 0A 28 4D 49 
38 FE E9 66 7B 00 25 3A B8 1A 78 30 E1 F8 2A 58 57 D1 38 FB A0 67 B4 8B DB 51 9E F9 4E 76 01 8E 
40 CF 87 97 B3 61 FC 5D 3F 70 0F 52 20 7C 13 6D 3A D2 D2 83 DE 19 AF 45 2E B3 BB A2 B8 A5 2C F1 
7D 7D A8 F8 D6 25 28 FE 25 8F 70 BC 23 F0 6F 28 B6 70 E7 84 E3 96 20 41 E7 09 A4 84 99 87 5C 46 
6F 27 5B 10 F5 28 74 EF B5 C6 DB 11 05 A4 8E F1 1C BF 06 55 26 9E CF 40 5A F2 AB 88 93 8E 76 A8 
31 01 25 29 99 83 D2 E6 CF C6 1F B3 D4 87 5C 19 EF 6C B6 2B C9 56 CC F6 10 DC 49 53 F6 23 7F 1C 
CB C9 0C F6 26 58 04 BC CA 73 FC 7F 20 97 E4 16 37 E1 DE F7 F4 A2 F9 BE 0B BD 1B 36 F3 F4 77 37 
BA FF BF 4E BE 94 F6 13 91 D2 F0 38 E0 A5 9E 63 FA 90 A2 EA AF C0 CD CD 76 37 C5 14 57 E3 D0 35 
DA 1B DD 2F 3B 21 37 70 57 8C 91 8F 3E B4 97 39 07 29 52 43 6C 85 B2 B4 ED DD 1C DB F5 1B BD 1B 
C5 26 27 B1 3F F0 B7 8E CF FE C0 60 AF 9F EF 03 9F 4B 31 AF 76 5E 82 EE 87 DD D0 FD B0 3D 7E 8F 
A4 67 81 BF A0 7B E1 66 94 D6 3A 8B 60 B8 07 7A CE B7 58 09 EC C9 40 72 93 76 66 03 EF 6D CE CD 
17 6C FF 24 F0 53 54 82 E1 A9 0C F3 A0 17 DD 14 6B 88 1F 5F 70 8F 67 CC 19 68 01 D7 1D FF 30 9C 
DA 2F 3D D7 7A FF 92 C6 5B 86 DF 95 AB 6E EA 8C E1 98 95 62 6C 57 CC 4D 28 86 E3 CF 68 D3 BF 38 
45 FF 9D 6D 2D E9 7C B7 CF 4F E8 A3 33 13 DA 4B 51 31 C9 D0 D8 7B 78 C6 DA 1A B8 8C E2 CF 81 F5 
68 C3 1A 2B 0B 89 8B D5 81 39 1C 51 E2 D8 ED 1C 94 30 87 7E 24 5C B4 38 00 B8 21 30 EF F6 B6 00 
6D 76 42 BC 00 6D 78 9E C8 D0 77 9A F6 57 F4 D2 4D CB 28 E0 6B E8 A5 5B 74 EC B9 C8 9F FB B0 C0 
98 6F 47 82 4A D1 F1 9E 04 3E 4C 3E 77 E7 2C 74 4B 0C C7 38 E0 33 C8 DA 54 E4 3E BF 9C F4 F5 BA 
DE EA E9 67 9B 02 7F C7 97 1C FD 2D 4C 38 FE F4 8E 63 FB 90 C6 B8 45 0F CA 34 79 AF 67 AE 49 EB 
B5 BD 62 76 1A 76 45 82 76 9E 6B BF 00 25 93 99 43 B6 18 8E 29 C0 75 C8 32 11 EB 39 D1 8F EE 7B 
9F 62 E3 9D C4 7D 36 ED E6 18 E3 51 C7 71 5F F3 CC C7 C5 6C 54 0B AD C8 BC 16 A2 67 48 5A 05 CF 
AB 1D 7D 1C D3 71 CC AE C0 AF 32 CE E3 39 47 3F 5E 36 41 DA D8 58 3F 4E 67 3B DB 33 EE 87 4B 1C 
33 56 5B 8C 34 24 A7 00 B7 75 C1 7C 42 6D 25 D2 20 75 32 86 62 0F FA 50 FB 3E 7E ED 5E 5D 0C 47 
81 23 46 0B 69 60 92 04 8E F6 79 9F 44 78 13 DE 6A 2E 81 63 6F A4 B1 89 F9 B7 2D 22 FB 4B 38 2D 
A1 BF 35 F5 03 B7 20 49 02 47 EB 5E DC 02 65 99 CB 73 0D D7 12 AE A6 3E 27 67 DF 69 DA 12 A4 75 
0B 31 0A D5 1A 8A 3D FE AD 9E F1 7A 90 B0 1F 7B BC 4B 29 57 E8 E8 06 81 63 3A 70 97 63 1E 79 DB 
72 E0 2D 29 C6 ED 46 81 A3 81 5C 92 41 1A F7 3B 3C 73 4C D3 9E 25 BD 80 3E 9B 72 F7 00 3E 81 63 
AB 12 C7 F4 C5 A7 BA AE 79 91 16 5B E0 38 9E B8 CA FD DF 93 CE 52 E4 12 38 AE 6B 7E B7 25 52 DA 
B9 84 C9 34 6D 7D F3 EF 4A 64 3A D2 2A 95 B5 20 1A F8 35 66 79 5F 88 55 B5 CB 90 5F 61 8B 1E E4 
AE 10 7B 93 14 BB F9 34 74 3F 2E 79 DC AB E8 AE 4C 56 26 70 B8 5B 3F 72 81 F1 11 12 38 4E 03 BE 
95 71 CC 4E 81 63 26 12 0E CA F8 FB 1E A2 9C C4 06 CB 03 E3 56 B5 89 0B 09 1C 6B 29 FE 8C 7A 06 
6D 14 7C 94 29 70 34 90 EB 51 28 66 E6 73 25 8D ED 13 38 3E 53 E2 DF 7B 62 E0 6F 2D 42 DD 02 C7 
24 E4 E5 10 FB 9A F5 11 AE 8D D3 AD 02 C7 C3 C8 9A 16 C3 C3 E3 21 C2 EF DD 09 CD E3 CA BC 67 EB 
10 38 1A C8 4D B4 13 D7 35 2F D2 62 0A 1C 47 93 7F 53 9F D4 6E 21 AC F4 75 09 1C FD C0 17 90 B7 
4A D1 39 AC A1 A9 F0 73 C5 70 4C 47 7E 60 DB 85 AE 50 01 96 23 CB 40 27 E3 49 DE F4 D4 CD 17 51 
6D 8B 46 DB 67 0D E4 63 7C 17 DA 5C CF AC 7E 5A A9 38 0C 99 C4 3A F9 15 BA 39 C7 96 34 EE 21 C0 
35 E8 25 30 12 7D 93 87 0A 3D C8 E7 72 4E CE F3 4F A7 B8 46 F6 AB C0 D4 82 7D F8 98 85 7C 4F FF 
27 72 BF 2B 50 30 A3 8F 63 90 35 37 8F 5F 75 4C C6 E0 F7 FF 4E CB 34 F4 F2 3C B2 F8 74 72 31 03 
F8 18 7A 11 BA D8 1A 59 D8 AA 62 07 E0 D4 12 FB 3F 15 09 F1 31 83 F7 BB 85 2F A1 18 B3 24 D6 A0 
4D 7B 7B 8C C0 C6 24 67 86 1B CD 40 BC E9 50 2B 52 BB 1D FE 7D 57 03 B9 4B 2D 44 1E 16 CB 91 0B 
E3 3E B8 63 5D 66 A1 7B E1 8C 84 F1 3E 8C 3F 69 CC F3 68 1F F8 34 03 C5 49 37 46 1A EF E9 B8 0B 
47 E6 65 0D FA AD DA DB B2 66 5B 8F 9E B1 7D CD 39 B5 12 06 4C 43 2E 74 07 B7 CD AF 9D 2F 00 3F 
8F 38 C7 32 D9 02 29 F4 7A 02 C7 2D 42 D7 A4 C5 28 F4 5B B8 FE FE 16 73 D0 73 E4 F4 8C 73 6A D5 
71 F3 31 1F 09 57 CF A1 F5 B8 11 52 20 BE C8 71 EC 58 E4 11 B4 5F E7 17 E3 29 CF 45 68 1E 70 1E 
70 38 FE 0B 54 B6 86 AC 48 3B C3 33 E7 76 B6 40 41 55 75 CF D5 D5 92 82 73 27 23 A1 E3 3C 14 7C 
57 C6 F8 97 10 BE A1 AA C0 2C 1C C9 CD 17 30 18 B2 70 E4 69 ED 16 8E 9D 29 47 C3 D3 DE D2 04 14 
66 E5 8F 29 C6 BD 0E 05 12 6F 49 79 82 7D C8 C2 11 AB AD C7 BF 29 AA E2 F9 FD 40 C2 35 28 F3 3E 
71 59 38 B2 5A F4 F2 B4 B7 25 FC BD 45 A8 D3 C2 F1 62 FC F1 35 73 51 A0 FF D6 F8 DF 17 1B 21 C5 
E4 05 F8 9F 19 49 2E A2 DD 6A E1 E8 6C 6B D0 7B F3 CD F8 15 31 93 51 E2 0F D7 F9 0B F1 3F 6F 7A 
F0 C7 1C 7D 0F 7F B2 91 16 53 80 D7 A0 18 DF 2B F0 C7 0F FA 2C 1C A3 19 C8 56 57 84 1D 70 5B 15 
1A F8 6B 90 75 F2 77 C7 B9 79 EB 70 B8 E6 12 B2 70 7C C3 71 4E 03 AD ED EF A1 B5 EE 53 6A F5 A2 
7B E5 04 CF DF D1 40 0A 8B A4 CC B2 2E 0B 87 AB DD 04 BC 0F 7F 56 AF 5E 94 24 66 A5 E7 FC 5D 3B 
2D 1C DF 46 D1 FB B1 78 04 65 2E FA 11 BA 18 21 F2 6A 57 CB E6 67 C0 67 53 1C B7 00 38 14 6D 6C 
B2 64 59 A8 82 9D D0 43 E2 39 C7 77 2B 90 36 E0 E7 E8 41 B4 17 D2 CC 1E C5 86 EE 63 45 78 3B 0A 
2E FE 62 A4 FE 8C 0D 69 A0 E0 F1 DB 91 AB C2 3F 19 78 E1 35 90 FF FB 67 09 A7 B4 7E 17 F0 C9 92 
E6 98 C4 B1 84 05 D2 79 28 16 E1 21 B4 66 57 23 25 C9 66 28 A8 ED 43 24 BB 4D BD 12 29 3B 62 A6 
D5 BC 97 70 6C C1 81 CD 96 86 E5 48 C3 77 3F F2 C1 FD 11 0A 74 2C 8B F5 CD F1 56 21 6D 59 28 73 
61 2F BA CE 9F 70 7C B7 14 65 48 69 69 29 9F 63 43 AD E5 5A A4 A1 5B 85 7E BB 65 CD CF 7A D1 BA 
3C 08 F9 B1 27 B9 4D BD 04 25 01 F8 87 E3 BB 50 56 19 D0 CB F0 6A B4 31 68 CF 20 36 9E 81 CD CF 
24 B4 51 1B 83 5E F4 53 50 2A E9 76 C6 A0 67 5A 12 0D F4 EE B8 96 0D 53 F0 6E 8A 36 5B 47 A1 4C 
6D 49 EC 0D FC 24 70 CC 50 E3 78 DC EB EC 7A 94 64 61 79 E0 FC E5 28 E9 C1 0D C8 42 7F 19 83 03 
64 DF 8F 84 8E AA B2 C4 C5 64 19 B2 F6 7E 93 64 A1 05 F4 1C 3C 11 AD D1 E3 3A BE 7B 21 D2 2A 5F 
D7 79 52 F3 73 D7 C6 F1 7A 64 09 76 A6 35 6D E3 39 E0 C6 66 6B 05 6A 67 B9 D6 EB D0 7E A9 28 0F 
A2 CD F6 55 8E EF 0E 44 02 6C 37 33 09 BD 73 3B E9 47 6E 56 3F 0D 9C DF 8F 94 C4 DF 44 B1 6B 97 
33 D8 A5 70 22 12 04 BE 9C 63 7E EB D1 3B E8 6C 06 27 87 71 CD E5 FB E8 B7 BD D8 F1 FD 06 CA 93 
37 10 47 23 B3 A6 39 D8 1C B2 6B B4 2F 8B 34 87 98 ED 01 C2 7E C3 9D 1C D6 05 F3 76 B5 34 99 66 
DA 19 85 D6 C5 6F 88 A3 7D 5E 8D 04 9F 3A 19 8E 16 8E FB 48 F6 AD 6F F1 32 C2 41 CE 37 79 CE 2D 
DB C2 11 0A 92 BC 83 B0 4F F2 91 29 C6 F4 A5 A9 CC CB B1 29 C6 2C D2 FA 50 9D 9B 90 65 24 AD 85 
63 25 7A 81 1C C3 60 77 8A 69 C0 85 29 FA F0 65 18 8C C1 31 29 C6 7F A3 E3 BC 57 A4 38 EF 6E E2 
D5 77 DA 37 C5 78 EF 0F F4 D1 8B D2 68 26 F5 E1 72 3D 8E 81 CB C2 71 0F D2 A8 9F 87 36 30 67 36 
DB C9 CD F6 21 94 7D F0 ED 68 F3 70 08 5A 77 73 90 3F FB CE 68 13 3B 83 64 37 0F 97 26 76 29 E9 
9E 61 2E FE C7 D1 5F 03 69 E0 5D 74 AB 85 63 3D 72 6B CD E3 FA F8 22 DC EF E8 D3 3C C7 9F E5 38 
B6 41 7E 85 B3 EF BD 5A 45 A5 F1 51 B8 63 0D D2 2A 37 EB B4 70 BC D1 71 7C 03 25 A2 C8 C3 74 06 
14 1B 69 9F 23 3E 0B C7 CF C9 B7 5F EB 41 FB E6 CE FE 6E 68 1D 30 81 E2 AE 40 4B 51 51 C0 2D 72 
4C B0 C5 7D 05 E7 50 46 4B AB 99 EC E4 E2 2E 98 7B 67 6B CF FB 9D 95 1D D0 83 BD 68 16 85 1B 0B 
CC 21 06 C3 51 E0 F8 43 86 39 5C 14 E8 6B 25 6E ED 63 16 81 63 31 72 37 39 06 AD 9B 2D 90 06 6E 
0A 72 2B 7A 31 12 7E 5A 82 7C 2F E1 F4 88 A1 40 50 9A F3 5E 11 E8 C7 57 4B 24 2F 9B A2 67 5F D9 
F7 EE 9F 49 AE 41 92 46 E0 38 2B D0 07 E8 B7 B8 25 D0 4F 3F F1 8A BF 76 92 E6 37 7C AF E3 BC 0F 
05 CE 69 10 57 D8 0C 8D 97 A6 B6 0D C8 7D 28 A9 9F BC 75 21 42 B8 04 8E 98 CD F5 1B 81 D6 8D EB 
F8 BC 1B 2C D0 F3 C4 D5 E7 19 9E E3 BB 55 E0 08 59 76 42 B8 36 79 BE DA 3C AE 0C A4 49 EE 8A 21 
EA 14 38 40 16 E1 CE B1 BF 93 F2 DC 3A 05 0E 9F 3B 5C 91 B5 78 9E A3 BF 75 F8 DD B2 7C 02 47 91 
E7 A5 4B 09 30 BF 15 E4 F9 1E F2 07 3B F7 A1 1F 67 07 94 B1 23 AF 99 AC 97 EE AB F8 F8 23 64 62 
CC C3 47 51 90 4F 37 91 36 4F B9 8B 07 D1 CB 71 7B 06 D2 4E E6 61 3F FC 9A 27 A3 7C 42 81 74 13 
29 96 30 E2 42 F4 2C F9 10 D2 96 3E 88 9E 09 CF 35 DB 93 C8 D5 F2 5E 06 82 61 B7 26 D9 97 77 0D 
72 2F 0A B1 8E F0 3D B7 49 8A 7E B2 B0 84 62 9B A5 B4 BC 12 B9 D6 14 49 33 7D 32 6E 97 CA 76 FA 
09 9B DE 7B 88 6F 29 6A B1 8E B0 0B 99 CB 9F 3D A4 89 FB 3B 8A B7 89 45 A8 08 EE 35 29 FB 09 BD 
2F 63 AF D7 BA F1 FD 4E 57 16 E8 F3 11 DC 05 3E 63 17 2A EE 76 5C C2 A9 EB 5E E9 C1 9D 36 F7 E6 
B8 D3 A9 14 57 A5 F1 A2 F1 21 55 E0 BA 1F EE 66 B0 0B 67 16 7E E3 F8 6C 14 DA A3 57 C5 7C C7 67 
53 7B D1 E2 FB 68 CE 4E EF 43 A6 D4 0F 92 B1 A2 A0 83 6D 28 27 6D 65 5E FA D0 0B 3A 2F 8B C8 5E 
5D B2 6C 62 2C B8 C7 51 15 CE D7 93 AD 0A 6F 3B B1 AA 9B 1B D9 B9 33 C5 31 79 AD 94 5F 42 9A CD 
65 A1 03 3B 08 6D 0C 1E 23 7D E5 D4 50 66 9A 32 36 70 67 92 BF 3A 7C 16 0E A4 1A 8D E1 35 84 AF 
77 D9 C5 14 93 70 09 5D 21 81 23 8B 15 30 0D A1 35 FB 50 CA 7E 42 EB 75 12 E1 B8 9A A1 84 2F 90 
B7 A8 30 E8 3A BF CA 0D 56 37 E0 BA 6F 5C 7B AA A9 B8 9F 83 77 C5 9D 8E 91 02 D7 1A 2D 7A 2F FC 
29 C3 58 65 E1 8A 93 1C DF 8B 82 2D D3 46 F3 B7 73 01 F2 C1 8E E5 CF 5B C4 15 AB 0C 2E C7 2D A5 
65 E1 BB 28 F7 7D B7 10 CB 7F 19 14 88 F6 0A 54 15 33 2B 87 D0 7D 41 F5 23 85 27 08 6F 26 F3 24 
0A F8 23 F9 B3 DC B8 52 E9 B5 F3 4C 86 BE 42 FE CF 49 BE E5 79 59 86 DC F0 F2 0A E0 59 38 85 F2 
35 77 AB 08 BB 04 CD 2C 79 0E 59 F1 A5 F7 6C 31 2F F2 78 A1 35 9B D6 BA 9D C6 5F BF 9B 14 71 45 
71 ED 35 5A 09 06 8A E0 D2 08 6F 4F 77 64 46 EC 36 7C 7B AD C7 2B 9D 85 31 0E F7 73 B4 A8 F2 6A 
21 EE 0D 7F ED 02 F8 68 94 55 29 2B DF 66 C0 87 35 16 31 F3 3A C7 E0 EB 11 FA 78 1E F9 BE D7 91 
F5 C7 45 EC 6B BC 08 05 3D FD 92 6C 01 E9 63 90 85 E4 B2 C8 F3 31 C2 34 90 35 32 29 40 33 8F 7F 
FE 3F 09 67 36 F1 11 0A 06 4F 5B C3 E2 04 C2 1B C1 A2 1B 1B 1F 73 91 02 E6 3C FC 45 36 63 30 1D 
DD 3B BF 28 71 0C D0 06 6E 76 C2 F7 33 52 F4 31 07 55 7E DE BF 79 FC 54 CA D3 D6 87 D2 78 C6 8E 
85 08 AD D9 34 99 D0 36 03 3E 1E 38 66 2D 8A 69 A9 82 96 DB 63 5F 73 CC 7E 14 9F 04 03 81 A8 CB 
91 DB DB CA E6 DC 56 23 01 B5 F3 1C 9F 25 D5 F5 0E FA 47 84 B9 BB 04 8E C9 CD 56 34 36 62 B8 E1 
53 28 55 A1 30 F1 D1 8B DC BC F6 44 6B 24 AB 52 25 CD F3 A8 DB 98 CA E0 EC 6A A0 38 90 22 F4 23 
C5 62 A7 12 26 56 C6 D1 DC 8C 26 9C D2 B1 93 9B D0 8B 3D A6 B0 01 E5 15 FC CA C3 5F F1 57 96 CD 
CA 37 D0 4B A5 1B CC E2 65 5C E3 D5 28 95 E1 FD C8 17 3F 2D 7B 62 02 47 5D 84 5C 9E AA D6 A8 86 
36 6F 21 4B 5A 0F D2 14 A5 89 3D 29 E2 1B 1B E2 49 54 67 68 6F 94 AF FC 60 CA 79 11 1E 4E F9 02 
47 28 B6 20 29 73 DF 36 48 D1 92 35 2B 5E 11 92 8A 2F 42 7C 41 33 B4 66 3F 8B 0A AB F9 98 80 AA 
EF 86 04 A5 2A B5 CE 67 A3 2C 49 65 E2 5A 37 4B 1D 9F 65 C5 27 54 4C 4C F8 6E A4 E2 2A 14 08 D9 
5D 61 63 30 0A 29 AF 3F C5 D0 14 1A 8A E0 7B 86 C6 B8 1F 5C BF 65 E8 99 55 3A A3 51 2A BB B4 34 
50 A6 A3 BC 9A CC 24 CA 70 75 C8 4B CC BC E7 FF 44 FE C3 07 44 EC 33 2F 63 18 C8 26 11 93 95 28 
DE E5 92 0C E7 64 59 77 46 5C 42 DA D7 B2 8A D3 F9 08 3D 08 37 43 59 98 8A B2 8E 6A 02 23 6F 63 
20 0D E1 34 14 EF B0 09 7A D1 BB 34 5A 20 0D DF CE 48 50 09 BD 78 5D 01 9F B1 09 55 B7 F6 69 20 
77 46 89 36 62 BA 6F 86 18 45 58 48 8E 59 7B 05 C2 6B 36 C9 3A 94 85 1B 22 F5 D3 2D B8 AE 5B 28 
66 27 0D BE 3E 6A DF 64 75 21 BE E7 7B EC 7B 24 C4 44 A4 74 CC E3 65 33 1C F0 AD CD B2 EE 87 DA 
EF 85 D1 64 73 B3 B9 1B F8 4B 49 73 F1 BD 88 EB E0 57 91 FB FB 39 DD 21 70 80 7E F3 B4 01 B8 59 
B8 1C 99 D4 43 9A C6 16 65 A5 D5 34 C2 84 5E 2C 55 0B FF 55 3D 08 2F 25 8E F6 28 0B 8B C8 96 AD 
EE EB 28 E8 2F 29 28 3B 4F CC 5D 56 42 2F 3D 97 C0 31 11 29 6B AA 14 36 20 5D 9D A4 B4 6E 79 69 
A9 22 03 4E 03 B9 E8 0D 27 4C E0 A8 1F 5F A6 BB AA 05 8E 6F 31 72 85 0D 18 A1 02 47 96 49 94 95 
13 1C A4 E1 EB 06 9E 43 29 3B 63 92 26 A5 67 55 94 75 9D FB 50 B0 52 28 78 B3 45 ED 8B 7F 04 13 
4A AD 5A 86 05 33 89 F5 15 8C F1 14 F0 E9 0A C6 29 CA 22 E4 86 F9 5F 09 C7 4C 44 1B DE 55 95 CC 
C8 8D EB 37 7B 1F F5 58 2E D3 54 38 8E 6D D5 5D 4F F9 4A B2 6F 91 2E AB DC 50 C2 E5 5A 1C E3 FE 
F7 AD 81 22 69 A4 87 2B BE 7B A1 CA 00 FB 7D 70 57 D8 76 B1 1A D5 76 7A D6 F1 DF 56 FB 34 DD 57 
56 21 84 CF CD BE AC FB A1 F6 7B 61 34 0A 6C 0E F9 91 B6 C8 5B 09 34 0D 21 13 7E 55 FC 91 F8 1B 
AE FB D1 0D 92 A7 82 68 4C D6 51 9E 16 63 0C D9 34 9B AE BC D9 46 35 84 2C 18 55 6F 64 63 68 74 
92 78 00 55 47 1E 2A 59 58 D2 14 E0 9A 44 B9 BF 53 68 8D B8 9E 23 BE 62 6F ED 3C 8D 0A 0B 2E 40 
C2 55 6B C3 B0 A8 AD 5D 09 EC 92 7A A6 BA 0E FD 24 2B 53 62 BB 09 AE 29 A1 CF 16 0D 54 38 AB 48 
A1 D6 6E C5 B5 66 63 58 8B 7C 0A AC 6E D9 57 74 13 BE E7 6D 95 75 2B FE CD F3 F9 7C 94 5E FD 76 
A4 24 5A 4C BA DF D0 D7 5F 37 E3 7B 7E 97 75 3F D4 BE E7 1A 8D 52 4E A6 15 38 76 41 69 74 CB 70 
AB AA 2A 13 47 88 B4 15 62 B3 D0 8F AC 26 FB 95 D0 77 16 CA 74 27 79 0B E9 DD A9 40 1B 0F A3 1E 
42 B5 28 AA 7E 30 95 21 04 AF 44 D5 B9 2F 46 85 2A CB 16 6A 62 92 C6 05 AB 6C 8B 70 48 E0 E8 74 
51 DA 14 05 41 27 71 13 4A 89 1D DA 40 64 D5 F0 35 9A 7D 26 BD C7 62 BB 09 AE 09 8C 97 87 C7 51 
72 84 E1 68 D9 68 E1 7A B6 A4 71 89 0B 61 02 47 7A 7C 1B DD 18 BF 43 5A 0E 74 7C B6 04 15 14 AD 
33 5B 56 95 F8 D6 66 0C EF 0F 57 1F B5 DF 0B A3 91 F6 3D AD 29 AA 07 F8 6F 54 29 3A B6 15 20 54 
00 A9 2A 5C 15 4B 63 F0 00 C3 57 E0 98 44 B8 3A 71 27 F7 97 31 11 23 48 2F 61 4B 54 D5 59 5D 42 
C2 C0 9D A4 2F 78 D7 87 D6 F9 7C AA 71 D5 2A 83 D8 EE 3F 79 08 C5 F6 75 66 7D DA 96 B0 10 F4 29 
CA 7B E9 AD 20 59 00 88 9D 12 3C 64 5D 3A 11 B8 31 65 5F 2B 90 E2 6F 71 A1 19 0D 0D 5C BF 7F 0C 
C1 CD A7 EC AA D3 ED B0 5B F1 29 34 66 50 8E C2 B5 93 C9 B8 53 B4 7E 87 91 23 6C 80 FF 59 E8 CB 
22 96 05 D7 FD D0 15 16 8E 3F 91 2D 6F FC BE 48 03 F3 41 E2 BE 18 8B 16 D9 8B 45 59 71 2A 4F 94 
D4 6F 16 CA 98 C3 04 E0 0A C2 F5 0F 3A F1 55 C3 34 CA 65 5B C2 BE 9C 55 BB 1E 3D 15 F8 BE 81 AC 
15 23 85 34 BE D4 65 C7 D9 84 84 D2 CE DF 2C 4D 21 CF D8 B1 71 ED 3C 43 72 F1 D8 2D 23 8F F7 14 
C9 CF BC 85 8C AC 35 9B 16 57 11 CF 59 14 CF 9E E8 4A B2 D0 87 A5 C4 75 E1 4B 0D 3E B3 A2 F1 A7 
78 3E 8F 55 44 3A 2B 2E C5 54 15 31 A6 CF A2 35 DF F9 BC 4F 1B 07 EB 63 14 4A 4D DE 49 ED 0A 8D 
5E E0 D7 39 CE 7B 3F AA A2 1D D3 E7 EF D1 88 7D 15 A1 AC CA E0 59 32 D5 94 45 EC 1A 04 D3 C8 5E 
F4 0F F4 22 B8 36 F2 5C 62 12 DB 55 A2 9B D8 2B C5 31 31 0A 71 65 21 A4 6C C8 2A CC 0E 75 92 36 
CE 2D CA D6 56 ED 18 F8 BE B3 4E 47 9A 00 EA 32 DD DA FE 1E F8 3E 56 9A DA 16 A1 35 9B A5 26 D1 
48 C2 15 9F B4 31 C5 05 42 57 E6 B6 79 B8 83 67 BB C1 82 58 27 4F E1 BE 17 77 AB 68 7C DF B3 A2 
2E 97 1F D7 B8 55 D4 85 5B 89 5B 09 BC 53 C1 7E 67 E2 76 21 2D CB 7B 27 35 BD 28 1E 63 6E 8E 73 
8F 03 EE 20 5B 70 5F 12 2B A9 DF AF 7F 2D E5 09 3E 2E CD 4E D5 3C 1A B1 AF 83 80 BF 91 AF 3E C2 
D5 74 8F 0B 9D 8B D7 D6 3D 81 8C 64 C9 96 73 54 E0 FB D5 54 6F 6D 0C 59 DE A6 03 DB 57 31 91 2E 
E1 98 C0 F7 CF 53 AE AB C8 B6 84 2D 1C F3 72 F4 9B 66 9D F6 90 2F 18 3B E4 0A F2 5A E2 66 69 09 
DD 23 FB 46 1C 6B 38 E1 13 0C 5F 53 A0 CF 5E 54 6C B3 13 DF BE C6 17 2F 9A 25 06 71 28 D3 40 C5 
8D 3B 29 F2 1B 0C 65 5C 56 B0 AA 0A 51 BB EE 87 57 53 2C 46 6F 1F CF E7 79 F6 F9 51 E9 45 8B EF 
9C 9C E7 BF 14 99 8D CF 23 4E EE F5 BB 23 F4 91 97 F9 A8 62 F6 C2 92 FA BF 0A 38 97 7A FD CA FF 
16 A1 8F 6D D0 EF 7D 0D F9 B5 52 49 29 3F CB A6 41 38 48 F9 78 E0 33 28 08 76 2A 32 01 E7 69 31 
7C 31 D3 30 07 59 2A E7 04 8E DB 9F B0 FB E4 ED 94 53 A7 25 89 C7 09 6B B7 3E 55 C5 44 72 B2 3D 
52 BC 6C 45 B1 4D CB C6 28 43 CB D1 81 E3 1E A1 5C 2D ED B1 29 8E B9 A3 E3 DF 69 5C BC 5C 66 FE 
76 DE 80 DE 27 79 52 EB 86 04 8E E9 C0 07 72 F4 EB 23 14 83 76 08 4A B0 62 6C C8 BD B8 D7 EE 3B 
0B F4 B9 1F EE 62 99 3E E1 C6 E7 6D 50 44 A9 D1 4D 75 C4 D2 E0 2A 80 FA 12 60 CF AA 27 D2 46 5D 
D7 D0 E5 D2 BB 3D D5 CC C7 25 F8 6D 8D 84 8E BC BC DD F1 59 83 74 D9 0F 2B 61 02 D2 7E 37 0A B4 
65 C0 E7 49 E7 0E E0 E3 CB 05 E7 90 A7 AD 03 BE 42 75 6E 34 BB A3 97 6A D5 7F 67 83 62 79 AA 77 
00 BE 89 AC 40 45 E6 90 36 90 B2 4C 9E A0 9A EB DD 29 40 CF 4A 71 8E CB 35 E0 8B 19 C6 7C 18 FD 
4E C7 23 EB D3 EE 28 F3 C7 49 48 B3 17 3A FF 33 9E 6B 76 7E E0 BC CB 3D E7 A5 E5 DA 14 73 FB 0E 
F9 FC 5B B7 40 AE 64 6F 2C 38 47 1F 17 B1 E1 3C D7 22 6B ED 83 28 E0 FD 4E 54 31 FA B7 48 F1 70 
59 B3 7D 07 09 EF 97 A1 0D C0 4A C2 D7 A0 75 1D 3A 39 28 C5 79 9F 46 4A A2 24 5E 86 9E E5 49 FD 
74 BA 53 01 BC 22 C5 F8 97 32 D8 0D 77 26 70 32 F2 DF 4E BB C6 4F 71 8C 3F 05 29 12 92 CE 5B 0B 
7C 82 70 96 36 D0 FB 60 1A BA 1F E7 00 87 B3 61 9C CA 4B 53 CC 73 21 12 DE B2 66 FF 19 DF 1C F7 
75 84 7F AF BC AC 22 DD 75 2D 03 D7 FB AF 1F F8 97 1C 7D 8D 02 6E 75 F4 D7 C0 6F 7D 9F 88 FB 3D 
76 51 8E F1 67 A2 FB B1 CF D1 5F 92 F2 F2 74 C7 F1 45 E3 4D 7E ED E8 F3 7A CF B1 87 3A 8E 6D 90 
CF C5 7E 06 70 86 A7 3F 57 B2 8F 69 9E 63 FF 23 E3 B8 93 81 77 20 B7 6E D7 EF F9 C3 94 FD 9C EC 
99 4F 9E F5 F8 A8 A3 9F AF 25 1C BF A7 67 EC 3B C8 67 91 3D 10 DD 4B 9D FD 25 65 BD 7B B5 67 0E 
AF CA 31 7E 8B 13 3D 7D FE 2F BE 05 98 B5 AD 41 3F 74 48 DB EA E2 E8 48 73 C8 D2 42 DA C4 32 18 
8B 36 1F 55 FE 9D 8B C8 5E D8 67 14 5A 17 BF C1 BD 88 F3 AC 8D 3A 0A 83 75 72 33 D5 5C F3 3A 04 
8E A2 CD 97 DA B4 6C 81 E3 D4 0C 73 7C 06 B9 F4 DC 89 92 0F DC E9 68 0F 37 8F 5B DF 76 5E 59 D6 
CB 4E 81 A3 EC F6 56 C7 1C D2 08 1C AD F6 2C 70 1D 70 21 70 26 12 44 4E 69 FE 3B 8D 50 FA 4D C7 
F8 93 08 6F F8 1B 28 BB D5 AD C8 92 B6 30 E7 DF EF DB 18 FF 2A E5 F9 EB 51 3C DB 5F 90 86 71 1E 
B2 70 2F 46 2E 85 BE F3 DA 2D 16 3D 48 A8 4C 33 5E 1F DA 88 DC 87 7F BD DE 83 2C 7D 9D D7 BF 2C 
CB 5E 9D 02 C7 C7 1C 63 37 D0 F5 CC 12 0F 38 19 FF BD F7 24 C9 1B 36 97 90 D2 07 1C 90 72 EC DD 
80 0B 48 5E F3 DD 2C 70 8C 46 09 72 5C F3 4E 53 20 75 0A F0 1E 54 33 C7 25 6C B5 9A 4B E0 E8 C5 
7D 9F DD 4C D8 95 68 4B 54 30 F0 C7 84 15 34 69 05 8E D7 7B CE BF 8F EC AE 55 8F 3A FA 49 12 38 
7A D0 F3 C7 35 FE A5 A4 53 8E B4 78 2D 52 06 B9 FA FA 44 C2 79 95 09 1C ED 95 0E 7F 8D F2 D5 A7 
AD FE E8 63 2C 92 3A DF 81 2E E4 25 E8 C2 A5 49 B7 76 43 73 62 55 55 BC BC 03 2D DC AA 59 8B 1E 
EE 79 E2 1F F2 72 23 BA B6 21 7A 90 B0 78 34 F0 36 E2 B8 CA B5 F8 2C DD 91 0E F7 1A FC 7E 8E 23 
99 EB A9 CF AD F1 62 F4 12 F6 55 5F 6D 67 5A B3 8D 44 9E 42 1B EB 22 6C 86 3B 0F 7E 5A 2E 74 7C 
B6 12 3D BF 5F 1F 38 77 53 DC FE F6 31 B8 04 29 48 42 F4 22 B7 85 22 81 DD 0D B4 D9 3D 31 C5 B1 
A3 09 BB 93 8D 24 2E 40 EF BF CE 7B 78 73 F4 6C FE 3D D2 5A 3F 84 D6 FB F3 68 63 3F 05 59 7F 66 
22 8B E5 DB 70 A7 57 05 B9 2F 27 B9 86 7E 8F C1 EB 70 34 DA 07 7D 1E AD F1 05 6D 9F 4F 45 CA 98 
57 23 77 B9 DD 13 FA 1E 0A AC 43 89 7F 5C 16 ED 2F A0 78 8E 0B 51 02 91 8D D0 33 63 73 64 C9 DC 
03 59 DE D2 3C AB 5D F4 03 7F 60 B0 70 B9 0F F0 0B E4 71 F2 30 FA AD 5F 88 82 A8 77 45 2E C1 A1 
64 16 79 B8 01 29 61 3A 85 8B 9D 91 5B DE F9 28 13 E7 5D C4 CF 0E D8 40 45 3E CF 76 7C 77 34 FA 
9B 2F 47 C5 52 1F 45 8A 82 25 E8 DA 4C 40 D7 67 16 B2 C0 1E 80 5B 60 5B 8A EE B9 AE 63 02 D2 3C 
A5 D1 DA 64 6D F7 A3 8B 7A 20 C9 41 81 7F 2B 69 7C 57 FB 41 9E 8B 14 89 C9 09 F3 2A A3 25 55 E2 
9C 0C BC 19 A5 3B 7E BC A4 F1 2F A5 3A 41 32 C4 76 A4 D3 C6 16 6D 43 C9 C2 D1 4F B2 76 B1 6C 0B 
07 68 C3 58 E6 DF 38 1C 2C 1C BE FB 38 8B 85 A3 48 BB 2D E1 3A BC AE A2 39 F8 34 F1 A3 51 60 64 
59 E3 76 C6 64 CC A0 FC E7 C8 70 B4 70 80 DB DC B8 CA 00 00 09 53 49 44 41 54 92 CE 94 75 CD 1E 
26 9C D6 74 12 B2 6A 25 F5 B3 B4 D9 F2 CE A3 9B 2D 1C 20 ED 79 59 EF FB 56 F3 D5 4F 7A 67 E4 71 
8A B8 54 81 AC 10 A1 31 16 A1 F7 DC 47 F0 7B 6A 3C EA 38 2F C9 C2 01 CA 28 55 E6 BE F7 A3 81 F1 
2B B3 70 74 4A 43 AB D0 C6 F3 91 02 03 F9 D8 A9 39 89 EB 90 34 E9 D3 44 5D 53 C2 D8 3E CA CE 65 
9F 44 A3 E2 F1 7C 69 68 CF 47 BF C7 15 A8 B6 4A 19 29 48 6F 61 E0 05 D3 0D CC 23 7B A1 C2 6E E6 
4F 48 1B 58 84 AF 21 37 BF 3A 39 0D 7F 06 19 43 F7 E8 B7 6A 1C 7F 35 70 42 C2 F7 BF 05 BE 5F 70 
8C AB C8 B6 51 68 67 1D F0 3E 06 57 41 2F 8B 7F 02 5F AD 68 AC E1 C6 85 A8 88 70 6C 96 20 CB 47 
28 6D F4 4A 94 DE 3F E9 9D B4 31 E1 C4 1F 6B D1 BB E4 FD 69 27 D8 45 2C 25 7D 41 D5 24 96 03 1F 
27 5B 3A F5 4B 88 53 A7 E6 0E A4 6C 39 AF 60 3F 9F 25 9C 49 74 2A F0 16 74 CF C7 DC 3F AC 01 8E 
A4 9C A2 87 3F 26 2C F0 54 86 CB FC B2 10 99 B6 5C D1 F3 B1 98 8C 7E 38 17 31 34 A5 C6 86 DC 85 
B4 3E 9D 4C 42 2E 74 79 D2 50 A6 E5 7A 64 82 EE B6 8A AF A7 01 DF AE 7B 12 91 38 09 D5 19 38 87 
70 06 2E 17 57 A3 C0 B9 BA 79 08 99 91 CB AC D7 30 54 B9 0C 5D 9B BA 94 24 EB 90 D2 20 F4 5E 38 
81 7C 2E 5F 4B 80 0F A3 C0 FE 53 C9 9F 29 ED 66 B4 E1 CC 73 1F 24 D1 8F 5B 90 39 15 F8 59 E4 B1 
46 0A 1F 45 CF AE 58 02 E2 03 C8 15 E8 2F 29 8F FF 0D 5A 73 79 14 61 0D E0 E7 28 3B DD 49 C8 5B 
A2 1B 6A 6D 65 E5 2A 06 B4 D1 59 59 82 BC 56 5E 82 32 4F 66 09 BA 5F 8F B2 82 E6 2D 46 7C 1D 12 
34 F6 44 7B 8C 4B 72 F6 D3 62 31 4A 19 5F 57 2D 90 87 D1 BE FB 8F 91 FA 6B A0 DF E4 58 BA 47 D1 
9B C8 A6 C0 EF 28 CF CC F3 24 6E 81 A7 87 E2 19 B3 D2 B6 A2 DA B8 22 4C 4A 98 57 EC F6 49 CF 1C 
DE 5C F2 B8 DF 27 6E EE FB 32 38 1C DD E4 65 FC FD 55 B8 54 75 BA B8 CC 40 9A C3 C5 29 C6 7A 1E 
69 76 D2 F8 E2 56 E1 52 D5 62 36 FE CC 33 79 DA 3F 90 CF 76 59 59 AA 5E 85 82 AF 6F 21 BE 8B CD 
23 E8 45 18 72 47 0C B9 54 AD 66 40 28 F5 05 8B 26 5D BF B4 C1 B4 A0 64 13 27 A1 00 F1 50 DF 4B 
90 B6 B0 33 56 EC DB 09 E7 A4 71 FD D9 8B 38 EE C1 8F 20 9F F2 A4 94 A9 BD 48 C3 BB 24 C2 78 AD 
DF EA 56 A4 14 71 55 D0 8E 41 DD 2E 55 ED 6C 87 9E 2F A1 EC 68 BE 76 3F F0 7F 70 17 3B 4B C3 9B 
48 EF 5A B4 1E B9 2E ED E1 E8 E7 9C 8E 63 BB DD A5 AA 9D C3 48 B7 EF 5A 87 E2 41 FF 9D C1 29 C0 
B7 63 70 72 99 90 05 E5 05 28 6E 23 CD B5 7F 14 38 0B 77 61 BC 1E F4 9C 6A 3F 3E 8F A5 74 36 8A 
2F 09 CD C5 97 CD EB 51 C7 B1 59 2C 0C BD C8 DD 2C EF 9E 64 35 B2 6A 64 49 C9 5D 99 4B 55 E8 25 
D6 8B 34 00 67 51 8E 16 FC 35 E8 C7 ED E4 3F A9 26 EF FE 45 28 D3 42 1D 4C A2 1A F7 91 06 7A 59 
BA 0A 75 5D 82 3B 67 73 51 56 A1 DF AF 6B 4C 79 29 98 89 5E 22 DB B1 61 FA CB 22 2C 64 43 97 8B 
A9 24 67 8B 00 69 25 3A 4D BB 07 E3 2F 46 F8 0B DC 7E F5 63 9A E7 1C 8E 02 FD B6 42 81 66 CB 90 
26 F0 F7 28 AE 26 6D B1 CD 23 71 BF 64 5B DC 8B 02 BF 63 B2 13 9A FF 1E 28 60 71 1A 03 69 55 D7 
30 E0 36 B1 B4 F9 EF 15 48 CB F8 78 B3 3D 86 52 D3 56 59 74 73 02 12 1A B7 6F B6 59 68 EE AD DA 
2C 9B A1 8D D1 38 06 FB 99 AF 42 EE 8D 73 91 4F EF 2F 90 C6 3E 8D 55 E3 20 92 5D E2 D6 A0 DF BF 
C5 CE 28 20 71 36 0A C4 9C 85 D6 FD 78 64 5D 98 8F 5C 1E AE 00 7E 4A 3E 2D F4 A6 E8 F7 3B 18 DD 
57 33 D0 0B 71 01 B2 94 5C 8F 5C 68 5D 16 AD AD F1 C7 AB B4 02 8B 43 F4 A0 1A 0D AF 43 59 85 A6 
32 38 30 74 39 DA 44 2D 41 9B C9 85 68 ED DC 87 2C C3 59 AA F3 8E 47 31 8A 87 22 D7 D4 56 72 83 
96 62 6D 59 73 8C 3E B4 56 57 A0 35 3C 9F 81 F5 FA 18 BA 3F CB AE 85 F3 05 06 2B 1A D2 5E D7 B2 
18 8B D6 E3 9E 0C FC 5E 9B 20 B7 A6 F1 E8 B7 6A C5 55 CC 43 EB F3 CF E4 2B 42 D9 C9 24 54 70 F3 
88 E6 D8 ED C1 E8 4F A3 FB F1 3A E0 27 F8 5D 87 66 A1 74 E4 2D 56 A0 EB EC E2 40 06 C7 CC AD 45 
42 66 5E 8E 63 B0 C2 6A 1E 12 E6 D2 30 0E 29 65 0E 43 96 9B A9 68 FF B0 00 3D DF 6F 41 D6 CB 24 
4B CE 89 E8 79 D7 E2 0A D2 69 ED 77 43 D9 F7 F6 41 99 A8 46 A3 EB 3E 0F B9 0C DF 88 EE C7 24 3A 
DF 51 7F 45 EF B8 3C CC 42 1B F1 2D 71 97 4C 98 8B 3B 79 C6 27 19 BC 7F B8 15 25 41 C8 CA 16 E8 
5E D8 13 BD 4B 36 65 E0 7E 58 8D EE 87 E5 E8 FD F6 37 74 7D EE 22 BB E0 3A 13 B7 60 78 2E F9 2D 
50 AF 26 5D 02 0F 27 AF A2 9C 60 BC AF 7B C6 DB 1A BD 04 62 8F D7 D9 46 82 85 C3 17 13 33 01 2D 
CC D8 E3 DD 46 BE 5A 09 86 61 E4 27 8D 85 C3 30 8C 74 8C 41 0A 82 32 DD 8D 0D C3 F0 30 16 F9 5C 
3E 4B BC CD E9 02 FC 2E 37 57 45 1C 67 24 0B 1C 3E 37 92 23 23 8F F3 18 F2 17 EC 96 4C 54 86 31 
92 30 81 C3 30 0C C3 18 56 4C 41 81 42 B1 B4 E3 AE 22 56 20 53 B8 09 1C C5 DA 83 C8 9F DA 45 2C 
81 EE 69 14 70 3C 1E C3 30 EA C2 04 0E C3 30 0C 63 58 B2 31 CA 47 5C 34 8F B3 2F 5D 2B C8 67 D2 
04 8E FC ED DD 9E B1 77 60 C3 0A CC 79 DA 43 E8 F7 0F E5 3B 37 0C A3 7C 4C E0 30 0C C3 30 86 35 
AD CA E2 D7 92 2F EE A2 1F 7F F5 C8 7D 72 F4 67 02 87 DA 83 F8 B3 0F 9D 9B B3 CF D5 28 1B D1 1B 
30 D7 29 C3 E8 26 4C E0 30 0C C3 30 46 0C 5B 22 AD F7 CD 64 DB C8 5E 98 D0 E7 D5 19 FB 32 81 43 
ED 08 CF B8 53 C8 E6 0E D7 8F 32 89 7D A0 79 AE 61 18 DD 87 09 1C 86 61 18 C6 88 64 16 12 3E AE 
25 9C 9B 7E 2D B0 8D A7 9F 9D D0 CB B2 6A 81 A3 17 55 AD CD 9B 71 E9 28 92 73 21 97 29 70 24 A5 
C7 4C AA E9 D0 6A 2B 9B 7D 7C 04 A5 53 35 0C A3 BB 31 81 C3 30 0C C3 18 F1 6C 84 2A 8B 7F 03 B8 
87 C1 C5 61 1A C0 05 09 E7 9F EE 38 BE 4C 81 63 4B 54 F4 F0 49 D2 15 45 73 F1 26 24 68 9D 88 DB 
FD A8 2C 81 63 35 EE C2 38 AD BF 6B A5 E3 9C 3E 94 2B FB 6C E0 5F C8 5F 40 C9 30 8C 7A 30 81 C3 
30 0C C3 30 3A 98 8A AA 5C 7F 19 B8 81 81 82 48 2F F7 1C 3F 16 15 9E A9 42 E0 78 3D 4A D7 DB 40 
D6 80 BC 8C 6E EB E7 3A 54 C4 A5 9D B2 04 8E 93 12 E6 F4 AD E6 31 CF 00 BF 01 3E 87 04 8C CE 8A 
A1 86 61 0C 2D 4C E0 30 0C C3 30 8C 00 BD 48 2B BF 4B C2 31 7B 13 BF 18 60 BB C0 31 0E 55 C6 6E 
59 5F FA 51 36 A7 22 7C B9 6D AC 85 48 98 69 51 86 C0 71 1B FE 34 B8 A3 90 90 B7 6D C1 BF C9 30 
8C EE C3 04 0E C3 30 0C C3 88 C4 27 89 BB 41 FF 41 B3 DF 1D 81 BF 74 7C 77 53 84 F9 EE D4 D1 67 
3F 70 16 B2 D8 6C 14 F9 6F 59 84 3F 0E C6 30 8C E1 8D 09 1C 86 61 18 86 11 89 1E E0 97 C4 DB A4 
CF 07 BE 04 AC 70 7C 77 5C A4 39 DF EA E8 FB CF E4 4F 4D EB 6A EB D9 D0 7A 62 18 C6 C8 C2 04 0E 
C3 30 0C C3 88 C8 14 E0 3E E2 5A 07 3A DB 32 E2 C5 35 1C 5F F2 5C 1B C0 C7 23 CD D5 30 8C A1 89 
09 1C 86 61 18 86 11 99 19 14 AF 70 9E D4 CE 8F 38 D7 C9 64 AB 7B 91 B5 9D 1B 71 AE 86 61 0C 4D 
4C E0 30 0C C3 30 8C 12 D8 05 58 4C 39 9B F8 39 91 E7 7A 61 49 F3 BC 04 05 DC 1B 86 31 B2 31 81 
C3 30 0C C3 E8 5A 5C F5 21 86 12 B3 51 61 C1 CD 23 F6 39 97 81 60 EF 58 EC 07 DC 18 B1 3F 80 4B 
81 77 A1 CC 5D 86 61 8C 6C 66 21 F7 4D 1F EB 80 53 2B 9A 8B 61 18 86 61 0C 3B 5E CA 40 BD 8B 18 
ED 13 25 CC B1 07 09 32 B1 E6 F8 1D CC B2 61 18 86 61 18 86 61 18 95 B1 15 CA FC 54 74 23 DF C7 
E0 02 7D B1 F8 54 84 F9 F5 03 67 62 C2 86 61 18 86 61 18 86 61 54 CE 64 E0 0A 8A 6D E8 AF 28 71 
7E D3 91 40 93 77 6E AB 80 63 4B 9C 9F 61 18 86 61 18 86 61 18 01 7A 80 8F 00 6B C8 B7 A9 7F 63 
C9 F3 BB 32 E7 BC EE 43 F1 2A 86 61 18 86 61 18 86 61 74 01 BB 93 3D 66 62 01 30 BA E4 79 1D 91 
71 4E FD C0 D7 81 F1 25 CF CB 30 0C C3 30 0C C3 30 8C 8C 8C 05 4E 46 AE 48 69 36 F7 67 56 30 A7 
D1 A4 0F 70 9F 8B 52 5D 1A 86 61 18 86 61 18 86 D1 C5 6C 4F 3A 57 A6 1D 2B 9A CF D9 81 79 3C 07 
9C 04 8C A9 68 3E 86 61 18 86 61 18 86 61 44 60 2F FC 82 C7 CD 15 CE 63 47 CF 1C 56 20 2B CB 94 
0A E7 62 18 86 61 18 86 61 18 46 64 E6 A0 0A DD 6B 19 D8 EC BF B7 E2 39 DC D6 36 F6 7C E0 14 60 
5A C5 73 30 0C C3 30 0C C3 30 0C A3 44 B6 04 4E 03 EE 41 29 75 AB E4 7D A8 42 FA 51 98 EB 94 61 
18 86 61 18 86 31 8C F9 FF 2B DA DB 9C 0F AC BE 40 00 00 00 00 49 45 4E 44 AE 42 60 82 
EndData
$EndBitmap
Text GLabel 7200 2925 0    50   Input ~ 0
PDC
$Comp
L Jumper:SolderJumper_2_Open JP3
U 1 1 5AE55045
P 7350 2925
F 0 "JP3" H 7350 3130 50  0000 C CNN
F 1 "SolderJumper_2_Open" H 7350 3039 50  0000 C CNN
F 2 "Jumper:SolderJumper-2_P1.3mm_Open_TrianglePad1.0x1.5mm" H 7350 2925 50  0001 C CNN
F 3 "~" H 7350 2925 50  0001 C CNN
	1    7350 2925
	1    0    0    -1  
$EndComp
$Comp
L power:GND #PWR0113
U 1 1 5AE550C6
P 7500 2925
F 0 "#PWR0113" H 7500 2675 50  0001 C CNN
F 1 "GND" H 7505 2752 50  0000 C CNN
F 2 "" H 7500 2925 50  0001 C CNN
F 3 "" H 7500 2925 50  0001 C CNN
	1    7500 2925
	0    -1   -1   0   
$EndComp
$Comp
L Connector:Test_Point TP2
U 1 1 5AE5BB9C
P 8625 2375
F 0 "TP2" H 8683 2495 50  0000 L CNN
F 1 "Test_Point" H 8683 2404 50  0000 L CNN
F 2 "TestPoint:TestPoint_Pad_D2.0mm" H 8825 2375 50  0001 C CNN
F 3 "~" H 8825 2375 50  0001 C CNN
	1    8625 2375
	1    0    0    -1  
$EndComp
$Comp
L power:GND #PWR0114
U 1 1 5AE5C270
P 8475 2550
F 0 "#PWR0114" H 8475 2300 50  0001 C CNN
F 1 "GND" H 8480 2377 50  0000 C CNN
F 2 "" H 8475 2550 50  0001 C CNN
F 3 "" H 8475 2550 50  0001 C CNN
	1    8475 2550
	1    0    0    -1  
$EndComp
$Comp
L Connector:Test_Point TP1
U 1 1 5AE5E877
P 8475 2375
F 0 "TP1" H 8875 2500 50  0000 R CNN
F 1 "Test_Point" H 8900 2425 50  0000 R CNN
F 2 "TestPoint:TestPoint_Pad_D2.0mm" H 8675 2375 50  0001 C CNN
F 3 "~" H 8675 2375 50  0001 C CNN
	1    8475 2375
	-1   0    0    -1  
$EndComp
Wire Wire Line
	8475 2550 8475 2375
$Comp
L pa_devboard-rescue:Conn_Coaxial-Connector_Specialized J1
U 1 1 5ADF8AD6
P 3500 4275
F 0 "J1" V 3737 4205 50  0000 C CNN
F 1 "Conn_Coaxial" V 3646 4205 50  0000 C CNN
F 2 "lsf-kicad-lib:Conn_SMA_Molex_73251-1150" H 3500 4275 50  0001 C CNN
F 3 "" H 3500 4275 50  0001 C CNN
F 4 "73251-1150 " V 3500 4275 50  0001 C CNN "Mnf."
	1    3500 4275
	-1   0    0    -1  
$EndComp
Wire Wire Line
	3500 4475 3500 4725
Text Notes 3050 3200 0    50   ~ 0
R1   R2   VBIAS \n330 1k5 3v3/5v (AMSAT)\n510  1k    3v3 (NXP AP)\n1k8  2k    5v (datasheet)\n
Text Notes 8400 4025 0    50   ~ 0
RF - PA \nFREQ 380-480MHz\nSWR 1.1-1.5\nGAIN 35-36dB
Text Notes 4525 2225 0    50   ~ 0
VCC1/VCC2/VBIAS: 3V3, 5V\nPDC: 1v4, 2v
$Comp
L power:PWR_FLAG #FLG0101
U 1 1 5AE9E8C0
P 9300 2400
F 0 "#FLG0101" H 9300 2475 50  0001 C CNN
F 1 "PWR_FLAG" H 9300 2574 50  0000 C CNN
F 2 "" H 9300 2400 50  0001 C CNN
F 3 "~" H 9300 2400 50  0001 C CNN
	1    9300 2400
	1    0    0    -1  
$EndComp
$Comp
L power:GND #PWR0115
U 1 1 5AEA1198
P 9300 2550
F 0 "#PWR0115" H 9300 2300 50  0001 C CNN
F 1 "GND" H 9305 2377 50  0000 C CNN
F 2 "" H 9300 2550 50  0001 C CNN
F 3 "" H 9300 2550 50  0001 C CNN
	1    9300 2550
	1    0    0    -1  
$EndComp
Wire Wire Line
	9300 2550 9300 2400
$EndSCHEMATC
